{
	"_id": "transaction01",
	"userId": "user123",
	"courseId": "course123",
	"isPaid": true,
	"paymentMethod": "Cash",
	"dateTimeEnrolled": "2022-08-15-1823PM"
},
{
	"_id": "transaction02",
	"userId": "user123",
	"courseId": "course456",
	"isPaid": true,
	"paymentMethod": "Cash",
	"dateTimeEnrolled": "2022-08-15-1823PM"
},
{
	"_id": "transaction03",
	"userId": "user456",
	"courseId": "course123",
	"isPaid": true,
	"paymentMethod": "Study Now Pay Later",
	"dateTimeEnrolled": "2022-08-15-1825PM"
}