{
	"_id": "user123",
	"firstName": "John",
	"lastName": "Doe",
	"email": "johndeo@gmail.com",
	"password": "user123",
	"isAdmin": false,
	"mobileNumber": "0915184123",
	"dateTimeRegistered": "2022-08-15-1811PM"
},
{
	"_id": "user456",
	"firstName": "Jane",
	"lastName": "Doe",
	"email": "janedeo@gmail.com",
	"password": "user123",
	"isAdmin": false,
	"mobileNumber": "0915184145",
	"dateTimeRegistered": "2022-08-15-1815PM"
}