{
	"_id": "order001",
	"userID": "user003",
	"transactionDate": "2022-08-15-1947PM",
	"status": "paid",
	"total": 1004
},
{
	"_id": "order002",
	"userID": "user002",
	"transactionDate": "2022-08-15-1950PM",
	"status": "paid",
	"total": 954
}